{
  "programs": [
    {
      "id": 123,
      "name": "Jerks",
      "rating": "14",
      "year": 2019,
      "plus_only": true
    },
    {
      "id": 456,
      "name": "Saw",
      "rating": "18",
      "year": 2004,
      "plus_only": true
    },
    {
      "id": 422,
      "name": "Beethoven",
      "rating": "0",
      "year": 1992,
      "plus_only": true
    },
    {
      "id": 12,
      "name": "A Nightmare on Elm Street",
      "rating": "18",
      "year": 1984,
      "plus_only": false
    },
    {
      "id": 40,
      "name": "Home Alone",
      "rating": "6",
      "year": 1990,
      "plus_only": true
    }
  ]
}
